-- Merging decision tree log ---
manifest
ADDED from E:\Technical\Project\Bhaktamber\Bhaktamber\app\src\main\AndroidManifest.xml:2:1-70:12
INJECTED from E:\Technical\Project\Bhaktamber\Bhaktamber\app\src\main\AndroidManifest.xml:2:1-70:12
INJECTED from E:\Technical\Project\Bhaktamber\Bhaktamber\app\src\main\AndroidManifest.xml:2:1-70:12
INJECTED from E:\Technical\Project\Bhaktamber\Bhaktamber\app\src\main\AndroidManifest.xml:2:1-70:12
MERGED from [androidx.constraintlayout:constraintlayout:2.0.1] C:\Users\win10\.gradle\caches\transforms-2\files-2.1\ff7c2b1c0eba7c6f9f40715dd4abe6a3\AndroidManifest.xml:2:1-11:12
MERGED from [com.google.android.material:material:1.2.1] C:\Users\win10\.gradle\caches\transforms-2\files-2.1\7c0749603b37ce1a569c57b641c653f3\AndroidManifest.xml:17:1-24:12
MERGED from [com.google.android.ads.consent:consent-library:1.0.8] C:\Users\win10\.gradle\caches\transforms-2\files-2.1\e6a323960748b60cbc8a8920708f59b5\AndroidManifest.xml:2:1-9:12
MERGED from [androidx.appcompat:appcompat:1.2.0] C:\Users\win10\.gradle\caches\transforms-2\files-2.1\1fd57be95c41cb8f8091b10f06aca29f\AndroidManifest.xml:17:1-24:12
MERGED from [androidx.legacy:legacy-support-v4:1.0.0] C:\Users\win10\.gradle\caches\transforms-2\files-2.1\e6f7ac8870d07ec480c55e412543f694\AndroidManifest.xml:17:1-22:12
MERGED from [androidx.viewpager2:viewpager2:1.0.0] C:\Users\win10\.gradle\caches\transforms-2\files-2.1\a00c1ffde9e0acebb79c2b330b864052\AndroidManifest.xml:17:1-24:12
MERGED from [androidx.recyclerview:recyclerview:1.1.0] C:\Users\win10\.gradle\caches\transforms-2\files-2.1\20286719fbe21c5f4e290d9126625f98\AndroidManifest.xml:17:1-24:12
MERGED from [androidx.cardview:cardview:1.0.0] C:\Users\win10\.gradle\caches\transforms-2\files-2.1\24297c6b874431325040b0015bea2788\AndroidManifest.xml:17:1-22:12
MERGED from [de.hdodenhof:circleimageview:3.1.0] C:\Users\win10\.gradle\caches\transforms-2\files-2.1\403c481ed8fcc59aea949d17bca70a33\AndroidManifest.xml:2:1-11:12
MERGED from [com.shuhart.bubblepagerindicator:bubblepagerindicator:1.1.2] C:\Users\win10\.gradle\caches\transforms-2\files-2.1\f3c65ca980dcaca187918e7b7eefbea1\AndroidManifest.xml:2:1-11:12
MERGED from [com.google.firebase:firebase-database:19.4.0] C:\Users\win10\.gradle\caches\transforms-2\files-2.1\47e1adf828947e221cebedec71c0337c\AndroidManifest.xml:15:1-38:12
MERGED from [com.google.firebase:firebase-auth:19.4.0] C:\Users\win10\.gradle\caches\transforms-2\files-2.1\90ec407056398297a88d7bb96bf4893b\AndroidManifest.xml:17:1-42:12
MERGED from [com.google.android.gms:play-services-ads:19.4.0] C:\Users\win10\.gradle\caches\transforms-2\files-2.1\23b6940fe6733cdffd0f5cdb868e4eb5\AndroidManifest.xml:17:1-25:12
MERGED from [androidx.palette:palette:1.0.0] C:\Users\win10\.gradle\caches\transforms-2\files-2.1\dbb17754e1a95dfb98d4a8088a215695\AndroidManifest.xml:17:1-22:12
MERGED from [androidx.multidex:multidex:2.0.0] C:\Users\win10\.gradle\caches\transforms-2\files-2.1\8de8e6a915b2ffe0c32e45640a607630\AndroidManifest.xml:17:1-22:12
MERGED from [androidx.browser:browser:1.0.0] C:\Users\win10\.gradle\caches\transforms-2\files-2.1\b16473ced5dad67a9c24b36039e4215b\AndroidManifest.xml:17:1-22:12
MERGED from [androidx.legacy:legacy-support-core-ui:1.0.0] C:\Users\win10\.gradle\caches\transforms-2\files-2.1\9f621d84bdec76104180196cd0548f86\AndroidManifest.xml:17:1-22:12
MERGED from [androidx.cursoradapter:cursoradapter:1.0.0] C:\Users\win10\.gradle\caches\transforms-2\files-2.1\5170b6257121341e9ca129c03241aeae\AndroidManifest.xml:17:1-22:12
MERGED from [com.google.firebase:firebase-database-collection:17.0.1] C:\Users\win10\.gradle\caches\transforms-2\files-2.1\14f1093f7236a4e9c3084e3023f1e79b\AndroidManifest.xml:2:1-9:12
MERGED from [com.google.firebase:firebase-auth-interop:19.0.0] C:\Users\win10\.gradle\caches\transforms-2\files-2.1\fcefb04bb290195c0d8ccca3d7b9fa91\AndroidManifest.xml:2:1-10:12
MERGED from [com.google.android.gms:play-services-base:17.1.0] C:\Users\win10\.gradle\caches\transforms-2\files-2.1\6b0ce285a6b9119f999994a5d4cd15c2\AndroidManifest.xml:17:1-29:12
MERGED from [com.google.firebase:firebase-common:19.3.1] C:\Users\win10\.gradle\caches\transforms-2\files-2.1\8c189b2d24b9785e214bf42bfa0b50b7\AndroidManifest.xml:15:1-40:12
MERGED from [com.google.android.gms:play-services-gass:19.4.0] C:\Users\win10\.gradle\caches\transforms-2\files-2.1\fad1e5f564a032cc6f7d0228b6ec8997\AndroidManifest.xml:2:1-9:12
MERGED from [com.google.android.gms:play-services-ads-identifier:17.0.0] C:\Users\win10\.gradle\caches\transforms-2\files-2.1\3e7ca8a28bc6cd7ba1fab2ebbd0c7c6b\AndroidManifest.xml:17:1-24:12
MERGED from [com.google.android.gms:play-services-ads-lite:19.4.0] C:\Users\win10\.gradle\caches\transforms-2\files-2.1\26b92f1b2167fc503d8cd668343eead4\AndroidManifest.xml:17:1-47:12
MERGED from [com.google.android.gms:play-services-measurement-sdk-api:17.2.0] C:\Users\win10\.gradle\caches\transforms-2\files-2.1\cea4c01d1d066f5da45e00658dc41464\AndroidManifest.xml:17:1-27:12
MERGED from [com.google.android.gms:play-services-tasks:17.1.0] C:\Users\win10\.gradle\caches\transforms-2\files-2.1\dc918fce677671e4809a4012ddeaa03e\AndroidManifest.xml:2:1-9:12
MERGED from [com.google.android.gms:play-services-measurement-base:17.2.0] C:\Users\win10\.gradle\caches\transforms-2\files-2.1\843057c70dd439b62bdb0e25ee3611a4\AndroidManifest.xml:2:1-9:12
MERGED from [com.google.android.gms:play-services-basement:17.3.0] C:\Users\win10\.gradle\caches\transforms-2\files-2.1\857800dd1a2e24c28cdf52d2e06d7a0b\AndroidManifest.xml:17:1-28:12
MERGED from [androidx.fragment:fragment:1.1.0] C:\Users\win10\.gradle\caches\transforms-2\files-2.1\062378cfe53648b49808f293d3d61953\AndroidManifest.xml:17:1-24:12
MERGED from [androidx.appcompat:appcompat-resources:1.2.0] C:\Users\win10\.gradle\caches\transforms-2\files-2.1\6dca14f3630951847da690f8531dcd61\AndroidManifest.xml:17:1-24:12
MERGED from [androidx.drawerlayout:drawerlayout:1.0.0] C:\Users\win10\.gradle\caches\transforms-2\files-2.1\f77b67a437c19cbade9b88271f7947d2\AndroidManifest.xml:17:1-22:12
MERGED from [androidx.media:media:1.0.0] C:\Users\win10\.gradle\caches\transforms-2\files-2.1\964b9acfddd3053cb358e217afba1c6c\AndroidManifest.xml:17:1-22:12
MERGED from [androidx.legacy:legacy-support-core-utils:1.0.0] C:\Users\win10\.gradle\caches\transforms-2\files-2.1\46a79900219ea86cfd5770f542c3b3f0\AndroidManifest.xml:17:1-22:12
MERGED from [androidx.coordinatorlayout:coordinatorlayout:1.1.0] C:\Users\win10\.gradle\caches\transforms-2\files-2.1\f9d5fb6075f72cf9e8c4bff4be8ce87e\AndroidManifest.xml:17:1-24:12
MERGED from [androidx.viewpager:viewpager:1.0.0] C:\Users\win10\.gradle\caches\transforms-2\files-2.1\517c121fec59880edc741669057183a3\AndroidManifest.xml:17:1-22:12
MERGED from [androidx.slidingpanelayout:slidingpanelayout:1.0.0] C:\Users\win10\.gradle\caches\transforms-2\files-2.1\80ac4d7ea57724be025d8dce62566462\AndroidManifest.xml:17:1-22:12
MERGED from [androidx.customview:customview:1.0.0] C:\Users\win10\.gradle\caches\transforms-2\files-2.1\260f4b1c4d2feb446732f926dab9635f\AndroidManifest.xml:17:1-22:12
MERGED from [androidx.transition:transition:1.2.0] C:\Users\win10\.gradle\caches\transforms-2\files-2.1\167df481599fcaeb3caccd2b2e962ee5\AndroidManifest.xml:17:1-24:12
MERGED from [androidx.vectordrawable:vectordrawable-animated:1.1.0] C:\Users\win10\.gradle\caches\transforms-2\files-2.1\d8bc657e6b2b36b264702a93c5b0e4ce\AndroidManifest.xml:17:1-24:12
MERGED from [androidx.vectordrawable:vectordrawable:1.1.0] C:\Users\win10\.gradle\caches\transforms-2\files-2.1\7d717aa810e1fdc5747f41f5383c3b55\AndroidManifest.xml:17:1-24:12
MERGED from [androidx.loader:loader:1.0.0] C:\Users\win10\.gradle\caches\transforms-2\files-2.1\957a2cf8bc0b68887a9fd3a4200f994e\AndroidManifest.xml:17:1-22:12
MERGED from [androidx.activity:activity:1.0.0] C:\Users\win10\.gradle\caches\transforms-2\files-2.1\c36b60fdd83335a7b3ab1be1dec58bd9\AndroidManifest.xml:17:1-24:12
MERGED from [androidx.swiperefreshlayout:swiperefreshlayout:1.0.0] C:\Users\win10\.gradle\caches\transforms-2\files-2.1\ad486115d3991d2b6caaae460fd5681a\AndroidManifest.xml:17:1-22:12
MERGED from [androidx.asynclayoutinflater:asynclayoutinflater:1.0.0] C:\Users\win10\.gradle\caches\transforms-2\files-2.1\37a4f59af69e7f3c9c7f49bf00e5fecf\AndroidManifest.xml:17:1-22:12
MERGED from [androidx.core:core:1.3.1] C:\Users\win10\.gradle\caches\transforms-2\files-2.1\bb6ff2578cd930309955ba8f7cd95933\AndroidManifest.xml:17:1-26:12
MERGED from [com.google.firebase:firebase-components:16.0.0] C:\Users\win10\.gradle\caches\transforms-2\files-2.1\a36a8ba96e21b66cd4906538fef768a5\AndroidManifest.xml:15:1-23:12
MERGED from [androidx.localbroadcastmanager:localbroadcastmanager:1.0.0] C:\Users\win10\.gradle\caches\transforms-2\files-2.1\1ce82faed7842496ef9a70096ebecd26\AndroidManifest.xml:17:1-22:12
MERGED from [androidx.versionedparcelable:versionedparcelable:1.1.0] C:\Users\win10\.gradle\caches\transforms-2\files-2.1\09e72e19a22645cf520be2550d620c4b\AndroidManifest.xml:17:1-27:12
MERGED from [androidx.documentfile:documentfile:1.0.0] C:\Users\win10\.gradle\caches\transforms-2\files-2.1\aedc4177c08cea20232427651f3c5813\AndroidManifest.xml:17:1-22:12
MERGED from [androidx.print:print:1.0.0] C:\Users\win10\.gradle\caches\transforms-2\files-2.1\210a7be50b8fd75dbe913634e9c96e15\AndroidManifest.xml:17:1-22:12
MERGED from [androidx.interpolator:interpolator:1.0.0] C:\Users\win10\.gradle\caches\transforms-2\files-2.1\1e310658c3db2763cc8dd40b1c28c586\AndroidManifest.xml:17:1-22:12
MERGED from [androidx.lifecycle:lifecycle-runtime:2.1.0] C:\Users\win10\.gradle\caches\transforms-2\files-2.1\cae0754183aca6804772300d3f544774\AndroidManifest.xml:17:1-22:12
MERGED from [androidx.lifecycle:lifecycle-viewmodel:2.1.0] C:\Users\win10\.gradle\caches\transforms-2\files-2.1\953a3c6fda2cfa1c30fcef999d097670\AndroidManifest.xml:17:1-22:12
MERGED from [androidx.savedstate:savedstate:1.0.0] C:\Users\win10\.gradle\caches\transforms-2\files-2.1\39f37f521fa5c745348fdb4fdb8c0b1c\AndroidManifest.xml:17:1-24:12
MERGED from [androidx.lifecycle:lifecycle-livedata:2.0.0] C:\Users\win10\.gradle\caches\transforms-2\files-2.1\95599ade9b92dfd079accdfcfc847537\AndroidManifest.xml:17:1-22:12
MERGED from [androidx.lifecycle:lifecycle-livedata-core:2.0.0] C:\Users\win10\.gradle\caches\transforms-2\files-2.1\30c0e52156cdb13a8084fdcfc5b72476\AndroidManifest.xml:17:1-22:12
MERGED from [androidx.arch.core:core-runtime:2.0.0] C:\Users\win10\.gradle\caches\transforms-2\files-2.1\24b67a43adfb1b2d5ffaa99ac063df94\AndroidManifest.xml:17:1-22:12
MERGED from [androidx.annotation:annotation-experimental:1.0.0] C:\Users\win10\.gradle\caches\transforms-2\files-2.1\946683e56073bdbd4d3272aca080b2c0\AndroidManifest.xml:17:1-24:12
MERGED from [com.google.android.gms:play-services-ads-base:19.4.0] C:\Users\win10\.gradle\caches\transforms-2\files-2.1\83d928c6965cb48c19961ba465f64963\AndroidManifest.xml:2:1-9:12
INJECTED from E:\Technical\Project\Bhaktamber\Bhaktamber\app\src\main\AndroidManifest.xml:2:1-70:12
INJECTED from E:\Technical\Project\Bhaktamber\Bhaktamber\app\src\main\AndroidManifest.xml:2:1-70:12
INJECTED from E:\Technical\Project\Bhaktamber\Bhaktamber\app\src\main\AndroidManifest.xml:2:1-70:12
	package
		ADDED from E:\Technical\Project\Bhaktamber\Bhaktamber\app\src\main\AndroidManifest.xml:4:5-36
		INJECTED from E:\Technical\Project\Bhaktamber\Bhaktamber\app\src\main\AndroidManifest.xml
		INJECTED from E:\Technical\Project\Bhaktamber\Bhaktamber\app\src\main\AndroidManifest.xml
	android:versionName
		INJECTED from E:\Technical\Project\Bhaktamber\Bhaktamber\app\src\main\AndroidManifest.xml
		ADDED from E:\Technical\Project\Bhaktamber\Bhaktamber\app\src\main\AndroidManifest.xml:2:1-70:12
		INJECTED from E:\Technical\Project\Bhaktamber\Bhaktamber\app\src\main\AndroidManifest.xml
	xmlns:tools
		ADDED from E:\Technical\Project\Bhaktamber\Bhaktamber\app\src\main\AndroidManifest.xml:3:5-51
	android:versionCode
		INJECTED from E:\Technical\Project\Bhaktamber\Bhaktamber\app\src\main\AndroidManifest.xml
		ADDED from E:\Technical\Project\Bhaktamber\Bhaktamber\app\src\main\AndroidManifest.xml:2:1-70:12
		INJECTED from E:\Technical\Project\Bhaktamber\Bhaktamber\app\src\main\AndroidManifest.xml
	xmlns:android
		ADDED from E:\Technical\Project\Bhaktamber\Bhaktamber\app\src\main\AndroidManifest.xml:2:11-69
uses-permission#android.permission.INTERNET
ADDED from E:\Technical\Project\Bhaktamber\Bhaktamber\app\src\main\AndroidManifest.xml:6:5-67
MERGED from [com.google.firebase:firebase-database:19.4.0] C:\Users\win10\.gradle\caches\transforms-2\files-2.1\47e1adf828947e221cebedec71c0337c\AndroidManifest.xml:26:5-67
MERGED from [com.google.firebase:firebase-database:19.4.0] C:\Users\win10\.gradle\caches\transforms-2\files-2.1\47e1adf828947e221cebedec71c0337c\AndroidManifest.xml:26:5-67
MERGED from [com.google.android.gms:play-services-ads-lite:19.4.0] C:\Users\win10\.gradle\caches\transforms-2\files-2.1\26b92f1b2167fc503d8cd668343eead4\AndroidManifest.xml:23:5-67
MERGED from [com.google.android.gms:play-services-ads-lite:19.4.0] C:\Users\win10\.gradle\caches\transforms-2\files-2.1\26b92f1b2167fc503d8cd668343eead4\AndroidManifest.xml:23:5-67
MERGED from [com.google.android.gms:play-services-measurement-sdk-api:17.2.0] C:\Users\win10\.gradle\caches\transforms-2\files-2.1\cea4c01d1d066f5da45e00658dc41464\AndroidManifest.xml:23:5-67
MERGED from [com.google.android.gms:play-services-measurement-sdk-api:17.2.0] C:\Users\win10\.gradle\caches\transforms-2\files-2.1\cea4c01d1d066f5da45e00658dc41464\AndroidManifest.xml:23:5-67
	android:name
		ADDED from E:\Technical\Project\Bhaktamber\Bhaktamber\app\src\main\AndroidManifest.xml:6:22-64
uses-permission#android.permission.ACCESS_NETWORK_STATE
ADDED from E:\Technical\Project\Bhaktamber\Bhaktamber\app\src\main\AndroidManifest.xml:7:5-79
MERGED from [com.google.firebase:firebase-database:19.4.0] C:\Users\win10\.gradle\caches\transforms-2\files-2.1\47e1adf828947e221cebedec71c0337c\AndroidManifest.xml:25:5-79
MERGED from [com.google.firebase:firebase-database:19.4.0] C:\Users\win10\.gradle\caches\transforms-2\files-2.1\47e1adf828947e221cebedec71c0337c\AndroidManifest.xml:25:5-79
MERGED from [com.google.android.gms:play-services-ads-lite:19.4.0] C:\Users\win10\.gradle\caches\transforms-2\files-2.1\26b92f1b2167fc503d8cd668343eead4\AndroidManifest.xml:24:5-79
MERGED from [com.google.android.gms:play-services-ads-lite:19.4.0] C:\Users\win10\.gradle\caches\transforms-2\files-2.1\26b92f1b2167fc503d8cd668343eead4\AndroidManifest.xml:24:5-79
MERGED from [com.google.android.gms:play-services-measurement-sdk-api:17.2.0] C:\Users\win10\.gradle\caches\transforms-2\files-2.1\cea4c01d1d066f5da45e00658dc41464\AndroidManifest.xml:24:5-79
MERGED from [com.google.android.gms:play-services-measurement-sdk-api:17.2.0] C:\Users\win10\.gradle\caches\transforms-2\files-2.1\cea4c01d1d066f5da45e00658dc41464\AndroidManifest.xml:24:5-79
	android:name
		ADDED from E:\Technical\Project\Bhaktamber\Bhaktamber\app\src\main\AndroidManifest.xml:7:22-76
uses-permission#android.permission.ACCESS_WIFI_STATE
ADDED from E:\Technical\Project\Bhaktamber\Bhaktamber\app\src\main\AndroidManifest.xml:8:5-76
	android:name
		ADDED from E:\Technical\Project\Bhaktamber\Bhaktamber\app\src\main\AndroidManifest.xml:8:22-73
uses-permission#android.permission.WRITE_EXTERNAL_STORAGE
ADDED from E:\Technical\Project\Bhaktamber\Bhaktamber\app\src\main\AndroidManifest.xml:9:5-81
	android:name
		ADDED from E:\Technical\Project\Bhaktamber\Bhaktamber\app\src\main\AndroidManifest.xml:9:22-78
uses-permission#android.permission.READ_PHONE_STATE
ADDED from E:\Technical\Project\Bhaktamber\Bhaktamber\app\src\main\AndroidManifest.xml:10:5-75
	android:name
		ADDED from E:\Technical\Project\Bhaktamber\Bhaktamber\app\src\main\AndroidManifest.xml:10:22-72
uses-permission#android.permission.MODIFY_AUDIO_SETTINGS
ADDED from E:\Technical\Project\Bhaktamber\Bhaktamber\app\src\main\AndroidManifest.xml:11:5-80
	android:name
		ADDED from E:\Technical\Project\Bhaktamber\Bhaktamber\app\src\main\AndroidManifest.xml:11:22-77
uses-permission#android.permission.WAKE_LOCK
ADDED from E:\Technical\Project\Bhaktamber\Bhaktamber\app\src\main\AndroidManifest.xml:13:5-68
MERGED from [com.google.android.gms:play-services-measurement-sdk-api:17.2.0] C:\Users\win10\.gradle\caches\transforms-2\files-2.1\cea4c01d1d066f5da45e00658dc41464\AndroidManifest.xml:25:5-68
MERGED from [com.google.android.gms:play-services-measurement-sdk-api:17.2.0] C:\Users\win10\.gradle\caches\transforms-2\files-2.1\cea4c01d1d066f5da45e00658dc41464\AndroidManifest.xml:25:5-68
	android:name
		ADDED from E:\Technical\Project\Bhaktamber\Bhaktamber\app\src\main\AndroidManifest.xml:13:22-65
uses-permission#android.permission.FOREGROUND_SERVICE
ADDED from E:\Technical\Project\Bhaktamber\Bhaktamber\app\src\main\AndroidManifest.xml:14:5-77
	android:name
		ADDED from E:\Technical\Project\Bhaktamber\Bhaktamber\app\src\main\AndroidManifest.xml:14:22-74
application
ADDED from E:\Technical\Project\Bhaktamber\Bhaktamber\app\src\main\AndroidManifest.xml:15:5-69:19
MERGED from [androidx.constraintlayout:constraintlayout:2.0.1] C:\Users\win10\.gradle\caches\transforms-2\files-2.1\ff7c2b1c0eba7c6f9f40715dd4abe6a3\AndroidManifest.xml:9:5-20
MERGED from [androidx.constraintlayout:constraintlayout:2.0.1] C:\Users\win10\.gradle\caches\transforms-2\files-2.1\ff7c2b1c0eba7c6f9f40715dd4abe6a3\AndroidManifest.xml:9:5-20
MERGED from [com.google.android.material:material:1.2.1] C:\Users\win10\.gradle\caches\transforms-2\files-2.1\7c0749603b37ce1a569c57b641c653f3\AndroidManifest.xml:22:5-20
MERGED from [com.google.android.material:material:1.2.1] C:\Users\win10\.gradle\caches\transforms-2\files-2.1\7c0749603b37ce1a569c57b641c653f3\AndroidManifest.xml:22:5-20
MERGED from [de.hdodenhof:circleimageview:3.1.0] C:\Users\win10\.gradle\caches\transforms-2\files-2.1\403c481ed8fcc59aea949d17bca70a33\AndroidManifest.xml:9:5-20
MERGED from [de.hdodenhof:circleimageview:3.1.0] C:\Users\win10\.gradle\caches\transforms-2\files-2.1\403c481ed8fcc59aea949d17bca70a33\AndroidManifest.xml:9:5-20
MERGED from [com.google.firebase:firebase-database:19.4.0] C:\Users\win10\.gradle\caches\transforms-2\files-2.1\47e1adf828947e221cebedec71c0337c\AndroidManifest.xml:28:5-36:19
MERGED from [com.google.firebase:firebase-database:19.4.0] C:\Users\win10\.gradle\caches\transforms-2\files-2.1\47e1adf828947e221cebedec71c0337c\AndroidManifest.xml:28:5-36:19
MERGED from [com.google.firebase:firebase-auth:19.4.0] C:\Users\win10\.gradle\caches\transforms-2\files-2.1\90ec407056398297a88d7bb96bf4893b\AndroidManifest.xml:23:5-40:19
MERGED from [com.google.firebase:firebase-auth:19.4.0] C:\Users\win10\.gradle\caches\transforms-2\files-2.1\90ec407056398297a88d7bb96bf4893b\AndroidManifest.xml:23:5-40:19
MERGED from [com.google.firebase:firebase-auth-interop:19.0.0] C:\Users\win10\.gradle\caches\transforms-2\files-2.1\fcefb04bb290195c0d8ccca3d7b9fa91\AndroidManifest.xml:7:5-8:19
MERGED from [com.google.firebase:firebase-auth-interop:19.0.0] C:\Users\win10\.gradle\caches\transforms-2\files-2.1\fcefb04bb290195c0d8ccca3d7b9fa91\AndroidManifest.xml:7:5-8:19
MERGED from [com.google.android.gms:play-services-base:17.1.0] C:\Users\win10\.gradle\caches\transforms-2\files-2.1\6b0ce285a6b9119f999994a5d4cd15c2\AndroidManifest.xml:22:5-27:19
MERGED from [com.google.android.gms:play-services-base:17.1.0] C:\Users\win10\.gradle\caches\transforms-2\files-2.1\6b0ce285a6b9119f999994a5d4cd15c2\AndroidManifest.xml:22:5-27:19
MERGED from [com.google.firebase:firebase-common:19.3.1] C:\Users\win10\.gradle\caches\transforms-2\files-2.1\8c189b2d24b9785e214bf42bfa0b50b7\AndroidManifest.xml:25:5-38:19
MERGED from [com.google.firebase:firebase-common:19.3.1] C:\Users\win10\.gradle\caches\transforms-2\files-2.1\8c189b2d24b9785e214bf42bfa0b50b7\AndroidManifest.xml:25:5-38:19
MERGED from [com.google.android.gms:play-services-gass:19.4.0] C:\Users\win10\.gradle\caches\transforms-2\files-2.1\fad1e5f564a032cc6f7d0228b6ec8997\AndroidManifest.xml:7:5-20
MERGED from [com.google.android.gms:play-services-gass:19.4.0] C:\Users\win10\.gradle\caches\transforms-2\files-2.1\fad1e5f564a032cc6f7d0228b6ec8997\AndroidManifest.xml:7:5-20
MERGED from [com.google.android.gms:play-services-ads-identifier:17.0.0] C:\Users\win10\.gradle\caches\transforms-2\files-2.1\3e7ca8a28bc6cd7ba1fab2ebbd0c7c6b\AndroidManifest.xml:22:5-20
MERGED from [com.google.android.gms:play-services-ads-identifier:17.0.0] C:\Users\win10\.gradle\caches\transforms-2\files-2.1\3e7ca8a28bc6cd7ba1fab2ebbd0c7c6b\AndroidManifest.xml:22:5-20
MERGED from [com.google.android.gms:play-services-ads-lite:19.4.0] C:\Users\win10\.gradle\caches\transforms-2\files-2.1\26b92f1b2167fc503d8cd668343eead4\AndroidManifest.xml:26:5-45:19
MERGED from [com.google.android.gms:play-services-ads-lite:19.4.0] C:\Users\win10\.gradle\caches\transforms-2\files-2.1\26b92f1b2167fc503d8cd668343eead4\AndroidManifest.xml:26:5-45:19
MERGED from [com.google.android.gms:play-services-tasks:17.1.0] C:\Users\win10\.gradle\caches\transforms-2\files-2.1\dc918fce677671e4809a4012ddeaa03e\AndroidManifest.xml:7:5-20
MERGED from [com.google.android.gms:play-services-tasks:17.1.0] C:\Users\win10\.gradle\caches\transforms-2\files-2.1\dc918fce677671e4809a4012ddeaa03e\AndroidManifest.xml:7:5-20
MERGED from [com.google.android.gms:play-services-measurement-base:17.2.0] C:\Users\win10\.gradle\caches\transforms-2\files-2.1\843057c70dd439b62bdb0e25ee3611a4\AndroidManifest.xml:7:5-20
MERGED from [com.google.android.gms:play-services-measurement-base:17.2.0] C:\Users\win10\.gradle\caches\transforms-2\files-2.1\843057c70dd439b62bdb0e25ee3611a4\AndroidManifest.xml:7:5-20
MERGED from [com.google.android.gms:play-services-basement:17.3.0] C:\Users\win10\.gradle\caches\transforms-2\files-2.1\857800dd1a2e24c28cdf52d2e06d7a0b\AndroidManifest.xml:22:5-26:19
MERGED from [com.google.android.gms:play-services-basement:17.3.0] C:\Users\win10\.gradle\caches\transforms-2\files-2.1\857800dd1a2e24c28cdf52d2e06d7a0b\AndroidManifest.xml:22:5-26:19
MERGED from [androidx.core:core:1.3.1] C:\Users\win10\.gradle\caches\transforms-2\files-2.1\bb6ff2578cd930309955ba8f7cd95933\AndroidManifest.xml:24:5-89
MERGED from [androidx.core:core:1.3.1] C:\Users\win10\.gradle\caches\transforms-2\files-2.1\bb6ff2578cd930309955ba8f7cd95933\AndroidManifest.xml:24:5-89
MERGED from [androidx.versionedparcelable:versionedparcelable:1.1.0] C:\Users\win10\.gradle\caches\transforms-2\files-2.1\09e72e19a22645cf520be2550d620c4b\AndroidManifest.xml:24:5-25:19
MERGED from [androidx.versionedparcelable:versionedparcelable:1.1.0] C:\Users\win10\.gradle\caches\transforms-2\files-2.1\09e72e19a22645cf520be2550d620c4b\AndroidManifest.xml:24:5-25:19
MERGED from [com.google.android.gms:play-services-ads-base:19.4.0] C:\Users\win10\.gradle\caches\transforms-2\files-2.1\83d928c6965cb48c19961ba465f64963\AndroidManifest.xml:7:5-20
MERGED from [com.google.android.gms:play-services-ads-base:19.4.0] C:\Users\win10\.gradle\caches\transforms-2\files-2.1\83d928c6965cb48c19961ba465f64963\AndroidManifest.xml:7:5-20
	android:appComponentFactory
		ADDED from [androidx.core:core:1.3.1] C:\Users\win10\.gradle\caches\transforms-2\files-2.1\bb6ff2578cd930309955ba8f7cd95933\AndroidManifest.xml:24:18-86
	android:supportsRtl
		ADDED from E:\Technical\Project\Bhaktamber\Bhaktamber\app\src\main\AndroidManifest.xml:21:9-35
	android:label
		ADDED from E:\Technical\Project\Bhaktamber\Bhaktamber\app\src\main\AndroidManifest.xml:19:9-41
	android:debuggable
		ADDED from E:\Technical\Project\Bhaktamber\Bhaktamber\app\src\main\AndroidManifest.xml:17:9-35
	tools:ignore
		ADDED from E:\Technical\Project\Bhaktamber\Bhaktamber\app\src\main\AndroidManifest.xml:23:9-42
	android:roundIcon
		ADDED from E:\Technical\Project\Bhaktamber\Bhaktamber\app\src\main\AndroidManifest.xml:20:9-50
	android:icon
		ADDED from E:\Technical\Project\Bhaktamber\Bhaktamber\app\src\main\AndroidManifest.xml:18:9-39
	android:allowBackup
		ADDED from E:\Technical\Project\Bhaktamber\Bhaktamber\app\src\main\AndroidManifest.xml:16:9-35
	android:theme
		ADDED from E:\Technical\Project\Bhaktamber\Bhaktamber\app\src\main\AndroidManifest.xml:22:9-40
activity#com.adarsh.bhaktamber.activity.SplashActivity
ADDED from E:\Technical\Project\Bhaktamber\Bhaktamber\app\src\main\AndroidManifest.xml:25:9-31:20
	android:name
		ADDED from E:\Technical\Project\Bhaktamber\Bhaktamber\app\src\main\AndroidManifest.xml:25:19-58
intent-filter#action:name:android.intent.action.MAIN+category:name:android.intent.category.LAUNCHER
ADDED from E:\Technical\Project\Bhaktamber\Bhaktamber\app\src\main\AndroidManifest.xml:26:13-30:29
action#android.intent.action.MAIN
ADDED from E:\Technical\Project\Bhaktamber\Bhaktamber\app\src\main\AndroidManifest.xml:27:17-69
	android:name
		ADDED from E:\Technical\Project\Bhaktamber\Bhaktamber\app\src\main\AndroidManifest.xml:27:25-66
category#android.intent.category.LAUNCHER
ADDED from E:\Technical\Project\Bhaktamber\Bhaktamber\app\src\main\AndroidManifest.xml:29:17-77
	android:name
		ADDED from E:\Technical\Project\Bhaktamber\Bhaktamber\app\src\main\AndroidManifest.xml:29:27-74
activity#com.adarsh.bhaktamber.activity.HomeActivity
ADDED from E:\Technical\Project\Bhaktamber\Bhaktamber\app\src\main\AndroidManifest.xml:32:9-59
	android:name
		ADDED from E:\Technical\Project\Bhaktamber\Bhaktamber\app\src\main\AndroidManifest.xml:32:19-56
activity#com.adarsh.bhaktamber.activity.ShowKavyaActivity
ADDED from E:\Technical\Project\Bhaktamber\Bhaktamber\app\src\main\AndroidManifest.xml:33:9-64
	android:name
		ADDED from E:\Technical\Project\Bhaktamber\Bhaktamber\app\src\main\AndroidManifest.xml:33:19-61
activity#com.adarsh.bhaktamber.activity.AppDeveloperActivity
ADDED from E:\Technical\Project\Bhaktamber\Bhaktamber\app\src\main\AndroidManifest.xml:34:9-67
	android:name
		ADDED from E:\Technical\Project\Bhaktamber\Bhaktamber\app\src\main\AndroidManifest.xml:34:19-64
activity#com.adarsh.bhaktamber.activity.SujhabActivity
ADDED from E:\Technical\Project\Bhaktamber\Bhaktamber\app\src\main\AndroidManifest.xml:35:9-61
	android:name
		ADDED from E:\Technical\Project\Bhaktamber\Bhaktamber\app\src\main\AndroidManifest.xml:35:19-58
activity#com.adarsh.bhaktamber.activity.RachnaActivity
ADDED from E:\Technical\Project\Bhaktamber\Bhaktamber\app\src\main\AndroidManifest.xml:36:9-61
	android:name
		ADDED from E:\Technical\Project\Bhaktamber\Bhaktamber\app\src\main\AndroidManifest.xml:36:19-58
activity#com.adarsh.bhaktamber.player.MusicPlayerActivity
ADDED from E:\Technical\Project\Bhaktamber\Bhaktamber\app\src\main\AndroidManifest.xml:37:9-64
	android:name
		ADDED from E:\Technical\Project\Bhaktamber\Bhaktamber\app\src\main\AndroidManifest.xml:37:19-61
activity#com.adarsh.bhaktamber.activity.MahimaActivity
ADDED from E:\Technical\Project\Bhaktamber\Bhaktamber\app\src\main\AndroidManifest.xml:38:9-60
	android:name
		ADDED from E:\Technical\Project\Bhaktamber\Bhaktamber\app\src\main\AndroidManifest.xml:38:19-58
activity#com.adarsh.bhaktamber.activity.NumberActivity
ADDED from E:\Technical\Project\Bhaktamber\Bhaktamber\app\src\main\AndroidManifest.xml:39:9-61
	android:name
		ADDED from E:\Technical\Project\Bhaktamber\Bhaktamber\app\src\main\AndroidManifest.xml:39:19-58
activity#com.adarsh.bhaktamber.player.MainActivity
ADDED from E:\Technical\Project\Bhaktamber\Bhaktamber\app\src\main\AndroidManifest.xml:40:9-57
	android:name
		ADDED from E:\Technical\Project\Bhaktamber\Bhaktamber\app\src\main\AndroidManifest.xml:40:19-54
meta-data#com.google.android.gms.car.application
ADDED from E:\Technical\Project\Bhaktamber\Bhaktamber\app\src\main\AndroidManifest.xml:42:9-44:58
	android:resource
		ADDED from E:\Technical\Project\Bhaktamber\Bhaktamber\app\src\main\AndroidManifest.xml:44:13-56
	android:name
		ADDED from E:\Technical\Project\Bhaktamber\Bhaktamber\app\src\main\AndroidManifest.xml:43:13-66
meta-data#com.google.android.gms.version
ADDED from E:\Technical\Project\Bhaktamber\Bhaktamber\app\src\main\AndroidManifest.xml:46:9-48:69
MERGED from [com.google.android.gms:play-services-basement:17.3.0] C:\Users\win10\.gradle\caches\transforms-2\files-2.1\857800dd1a2e24c28cdf52d2e06d7a0b\AndroidManifest.xml:23:9-25:69
MERGED from [com.google.android.gms:play-services-basement:17.3.0] C:\Users\win10\.gradle\caches\transforms-2\files-2.1\857800dd1a2e24c28cdf52d2e06d7a0b\AndroidManifest.xml:23:9-25:69
	android:value
		ADDED from E:\Technical\Project\Bhaktamber\Bhaktamber\app\src\main\AndroidManifest.xml:48:13-66
	android:name
		ADDED from E:\Technical\Project\Bhaktamber\Bhaktamber\app\src\main\AndroidManifest.xml:47:13-58
meta-data#com.google.android.gms.ads.APPLICATION_ID
ADDED from E:\Technical\Project\Bhaktamber\Bhaktamber\app\src\main\AndroidManifest.xml:49:9-51:46
	android:value
		ADDED from E:\Technical\Project\Bhaktamber\Bhaktamber\app\src\main\AndroidManifest.xml:51:13-43
	android:name
		ADDED from E:\Technical\Project\Bhaktamber\Bhaktamber\app\src\main\AndroidManifest.xml:50:13-69
receiver#androidx.media.session.MediaButtonReceiver
ADDED from E:\Technical\Project\Bhaktamber\Bhaktamber\app\src\main\AndroidManifest.xml:53:9-57:20
	android:name
		ADDED from E:\Technical\Project\Bhaktamber\Bhaktamber\app\src\main\AndroidManifest.xml:53:19-76
intent-filter#action:name:android.intent.action.MEDIA_BUTTON
ADDED from E:\Technical\Project\Bhaktamber\Bhaktamber\app\src\main\AndroidManifest.xml:54:13-56:29
action#android.intent.action.MEDIA_BUTTON
ADDED from E:\Technical\Project\Bhaktamber\Bhaktamber\app\src\main\AndroidManifest.xml:55:17-76
	android:name
		ADDED from E:\Technical\Project\Bhaktamber\Bhaktamber\app\src\main\AndroidManifest.xml:55:25-74
service#com.adarsh.bhaktamber.player.MusicService
ADDED from E:\Technical\Project\Bhaktamber\Bhaktamber\app\src\main\AndroidManifest.xml:59:9-66:19
	android:enabled
		ADDED from E:\Technical\Project\Bhaktamber\Bhaktamber\app\src\main\AndroidManifest.xml:61:13-35
	android:exported
		ADDED from E:\Technical\Project\Bhaktamber\Bhaktamber\app\src\main\AndroidManifest.xml:62:13-36
	android:name
		ADDED from E:\Technical\Project\Bhaktamber\Bhaktamber\app\src\main\AndroidManifest.xml:60:13-48
intent-filter#action:name:android.media.browse.MediaBrowserService
ADDED from E:\Technical\Project\Bhaktamber\Bhaktamber\app\src\main\AndroidManifest.xml:63:13-65:29
action#android.media.browse.MediaBrowserService
ADDED from E:\Technical\Project\Bhaktamber\Bhaktamber\app\src\main\AndroidManifest.xml:64:17-82
	android:name
		ADDED from E:\Technical\Project\Bhaktamber\Bhaktamber\app\src\main\AndroidManifest.xml:64:25-80
uses-sdk
INJECTED from E:\Technical\Project\Bhaktamber\Bhaktamber\app\src\main\AndroidManifest.xml reason: use-sdk injection requested
INJECTED from E:\Technical\Project\Bhaktamber\Bhaktamber\app\src\main\AndroidManifest.xml
INJECTED from E:\Technical\Project\Bhaktamber\Bhaktamber\app\src\main\AndroidManifest.xml
MERGED from [androidx.constraintlayout:constraintlayout:2.0.1] C:\Users\win10\.gradle\caches\transforms-2\files-2.1\ff7c2b1c0eba7c6f9f40715dd4abe6a3\AndroidManifest.xml:5:5-7:41
MERGED from [androidx.constraintlayout:constraintlayout:2.0.1] C:\Users\win10\.gradle\caches\transforms-2\files-2.1\ff7c2b1c0eba7c6f9f40715dd4abe6a3\AndroidManifest.xml:5:5-7:41
MERGED from [com.google.android.material:material:1.2.1] C:\Users\win10\.gradle\caches\transforms-2\files-2.1\7c0749603b37ce1a569c57b641c653f3\AndroidManifest.xml:20:5-44
MERGED from [com.google.android.material:material:1.2.1] C:\Users\win10\.gradle\caches\transforms-2\files-2.1\7c0749603b37ce1a569c57b641c653f3\AndroidManifest.xml:20:5-44
MERGED from [com.google.android.ads.consent:consent-library:1.0.8] C:\Users\win10\.gradle\caches\transforms-2\files-2.1\e6a323960748b60cbc8a8920708f59b5\AndroidManifest.xml:5:5-7:41
MERGED from [com.google.android.ads.consent:consent-library:1.0.8] C:\Users\win10\.gradle\caches\transforms-2\files-2.1\e6a323960748b60cbc8a8920708f59b5\AndroidManifest.xml:5:5-7:41
MERGED from [androidx.appcompat:appcompat:1.2.0] C:\Users\win10\.gradle\caches\transforms-2\files-2.1\1fd57be95c41cb8f8091b10f06aca29f\AndroidManifest.xml:20:5-22:41
MERGED from [androidx.appcompat:appcompat:1.2.0] C:\Users\win10\.gradle\caches\transforms-2\files-2.1\1fd57be95c41cb8f8091b10f06aca29f\AndroidManifest.xml:20:5-22:41
MERGED from [androidx.legacy:legacy-support-v4:1.0.0] C:\Users\win10\.gradle\caches\transforms-2\files-2.1\e6f7ac8870d07ec480c55e412543f694\AndroidManifest.xml:20:5-44
MERGED from [androidx.legacy:legacy-support-v4:1.0.0] C:\Users\win10\.gradle\caches\transforms-2\files-2.1\e6f7ac8870d07ec480c55e412543f694\AndroidManifest.xml:20:5-44
MERGED from [androidx.viewpager2:viewpager2:1.0.0] C:\Users\win10\.gradle\caches\transforms-2\files-2.1\a00c1ffde9e0acebb79c2b330b864052\AndroidManifest.xml:20:5-22:41
MERGED from [androidx.viewpager2:viewpager2:1.0.0] C:\Users\win10\.gradle\caches\transforms-2\files-2.1\a00c1ffde9e0acebb79c2b330b864052\AndroidManifest.xml:20:5-22:41
MERGED from [androidx.recyclerview:recyclerview:1.1.0] C:\Users\win10\.gradle\caches\transforms-2\files-2.1\20286719fbe21c5f4e290d9126625f98\AndroidManifest.xml:20:5-22:41
MERGED from [androidx.recyclerview:recyclerview:1.1.0] C:\Users\win10\.gradle\caches\transforms-2\files-2.1\20286719fbe21c5f4e290d9126625f98\AndroidManifest.xml:20:5-22:41
MERGED from [androidx.cardview:cardview:1.0.0] C:\Users\win10\.gradle\caches\transforms-2\files-2.1\24297c6b874431325040b0015bea2788\AndroidManifest.xml:20:5-44
MERGED from [androidx.cardview:cardview:1.0.0] C:\Users\win10\.gradle\caches\transforms-2\files-2.1\24297c6b874431325040b0015bea2788\AndroidManifest.xml:20:5-44
MERGED from [de.hdodenhof:circleimageview:3.1.0] C:\Users\win10\.gradle\caches\transforms-2\files-2.1\403c481ed8fcc59aea949d17bca70a33\AndroidManifest.xml:5:5-7:41
MERGED from [de.hdodenhof:circleimageview:3.1.0] C:\Users\win10\.gradle\caches\transforms-2\files-2.1\403c481ed8fcc59aea949d17bca70a33\AndroidManifest.xml:5:5-7:41
MERGED from [com.shuhart.bubblepagerindicator:bubblepagerindicator:1.1.2] C:\Users\win10\.gradle\caches\transforms-2\files-2.1\f3c65ca980dcaca187918e7b7eefbea1\AndroidManifest.xml:7:5-9:41
MERGED from [com.shuhart.bubblepagerindicator:bubblepagerindicator:1.1.2] C:\Users\win10\.gradle\caches\transforms-2\files-2.1\f3c65ca980dcaca187918e7b7eefbea1\AndroidManifest.xml:7:5-9:41
MERGED from [com.google.firebase:firebase-database:19.4.0] C:\Users\win10\.gradle\caches\transforms-2\files-2.1\47e1adf828947e221cebedec71c0337c\AndroidManifest.xml:19:5-21:41
MERGED from [com.google.firebase:firebase-database:19.4.0] C:\Users\win10\.gradle\caches\transforms-2\files-2.1\47e1adf828947e221cebedec71c0337c\AndroidManifest.xml:19:5-21:41
MERGED from [com.google.firebase:firebase-auth:19.4.0] C:\Users\win10\.gradle\caches\transforms-2\files-2.1\90ec407056398297a88d7bb96bf4893b\AndroidManifest.xml:21:5-44
MERGED from [com.google.firebase:firebase-auth:19.4.0] C:\Users\win10\.gradle\caches\transforms-2\files-2.1\90ec407056398297a88d7bb96bf4893b\AndroidManifest.xml:21:5-44
MERGED from [com.google.android.gms:play-services-ads:19.4.0] C:\Users\win10\.gradle\caches\transforms-2\files-2.1\23b6940fe6733cdffd0f5cdb868e4eb5\AndroidManifest.xml:21:5-23:52
MERGED from [com.google.android.gms:play-services-ads:19.4.0] C:\Users\win10\.gradle\caches\transforms-2\files-2.1\23b6940fe6733cdffd0f5cdb868e4eb5\AndroidManifest.xml:21:5-23:52
MERGED from [androidx.palette:palette:1.0.0] C:\Users\win10\.gradle\caches\transforms-2\files-2.1\dbb17754e1a95dfb98d4a8088a215695\AndroidManifest.xml:20:5-44
MERGED from [androidx.palette:palette:1.0.0] C:\Users\win10\.gradle\caches\transforms-2\files-2.1\dbb17754e1a95dfb98d4a8088a215695\AndroidManifest.xml:20:5-44
MERGED from [androidx.multidex:multidex:2.0.0] C:\Users\win10\.gradle\caches\transforms-2\files-2.1\8de8e6a915b2ffe0c32e45640a607630\AndroidManifest.xml:20:5-43
MERGED from [androidx.multidex:multidex:2.0.0] C:\Users\win10\.gradle\caches\transforms-2\files-2.1\8de8e6a915b2ffe0c32e45640a607630\AndroidManifest.xml:20:5-43
MERGED from [androidx.browser:browser:1.0.0] C:\Users\win10\.gradle\caches\transforms-2\files-2.1\b16473ced5dad67a9c24b36039e4215b\AndroidManifest.xml:20:5-44
MERGED from [androidx.browser:browser:1.0.0] C:\Users\win10\.gradle\caches\transforms-2\files-2.1\b16473ced5dad67a9c24b36039e4215b\AndroidManifest.xml:20:5-44
MERGED from [androidx.legacy:legacy-support-core-ui:1.0.0] C:\Users\win10\.gradle\caches\transforms-2\files-2.1\9f621d84bdec76104180196cd0548f86\AndroidManifest.xml:20:5-44
MERGED from [androidx.legacy:legacy-support-core-ui:1.0.0] C:\Users\win10\.gradle\caches\transforms-2\files-2.1\9f621d84bdec76104180196cd0548f86\AndroidManifest.xml:20:5-44
MERGED from [androidx.cursoradapter:cursoradapter:1.0.0] C:\Users\win10\.gradle\caches\transforms-2\files-2.1\5170b6257121341e9ca129c03241aeae\AndroidManifest.xml:20:5-44
MERGED from [androidx.cursoradapter:cursoradapter:1.0.0] C:\Users\win10\.gradle\caches\transforms-2\files-2.1\5170b6257121341e9ca129c03241aeae\AndroidManifest.xml:20:5-44
MERGED from [com.google.firebase:firebase-database-collection:17.0.1] C:\Users\win10\.gradle\caches\transforms-2\files-2.1\14f1093f7236a4e9c3084e3023f1e79b\AndroidManifest.xml:5:5-7:41
MERGED from [com.google.firebase:firebase-database-collection:17.0.1] C:\Users\win10\.gradle\caches\transforms-2\files-2.1\14f1093f7236a4e9c3084e3023f1e79b\AndroidManifest.xml:5:5-7:41
MERGED from [com.google.firebase:firebase-auth-interop:19.0.0] C:\Users\win10\.gradle\caches\transforms-2\files-2.1\fcefb04bb290195c0d8ccca3d7b9fa91\AndroidManifest.xml:5:5-44
MERGED from [com.google.firebase:firebase-auth-interop:19.0.0] C:\Users\win10\.gradle\caches\transforms-2\files-2.1\fcefb04bb290195c0d8ccca3d7b9fa91\AndroidManifest.xml:5:5-44
MERGED from [com.google.android.gms:play-services-base:17.1.0] C:\Users\win10\.gradle\caches\transforms-2\files-2.1\6b0ce285a6b9119f999994a5d4cd15c2\AndroidManifest.xml:20:5-44
MERGED from [com.google.android.gms:play-services-base:17.1.0] C:\Users\win10\.gradle\caches\transforms-2\files-2.1\6b0ce285a6b9119f999994a5d4cd15c2\AndroidManifest.xml:20:5-44
MERGED from [com.google.firebase:firebase-common:19.3.1] C:\Users\win10\.gradle\caches\transforms-2\files-2.1\8c189b2d24b9785e214bf42bfa0b50b7\AndroidManifest.xml:20:5-22:41
MERGED from [com.google.firebase:firebase-common:19.3.1] C:\Users\win10\.gradle\caches\transforms-2\files-2.1\8c189b2d24b9785e214bf42bfa0b50b7\AndroidManifest.xml:20:5-22:41
MERGED from [com.google.android.gms:play-services-gass:19.4.0] C:\Users\win10\.gradle\caches\transforms-2\files-2.1\fad1e5f564a032cc6f7d0228b6ec8997\AndroidManifest.xml:5:5-44
MERGED from [com.google.android.gms:play-services-gass:19.4.0] C:\Users\win10\.gradle\caches\transforms-2\files-2.1\fad1e5f564a032cc6f7d0228b6ec8997\AndroidManifest.xml:5:5-44
MERGED from [com.google.android.gms:play-services-ads-identifier:17.0.0] C:\Users\win10\.gradle\caches\transforms-2\files-2.1\3e7ca8a28bc6cd7ba1fab2ebbd0c7c6b\AndroidManifest.xml:20:5-44
MERGED from [com.google.android.gms:play-services-ads-identifier:17.0.0] C:\Users\win10\.gradle\caches\transforms-2\files-2.1\3e7ca8a28bc6cd7ba1fab2ebbd0c7c6b\AndroidManifest.xml:20:5-44
MERGED from [com.google.android.gms:play-services-ads-lite:19.4.0] C:\Users\win10\.gradle\caches\transforms-2\files-2.1\26b92f1b2167fc503d8cd668343eead4\AndroidManifest.xml:20:5-44
MERGED from [com.google.android.gms:play-services-ads-lite:19.4.0] C:\Users\win10\.gradle\caches\transforms-2\files-2.1\26b92f1b2167fc503d8cd668343eead4\AndroidManifest.xml:20:5-44
MERGED from [com.google.android.gms:play-services-measurement-sdk-api:17.2.0] C:\Users\win10\.gradle\caches\transforms-2\files-2.1\cea4c01d1d066f5da45e00658dc41464\AndroidManifest.xml:20:5-44
MERGED from [com.google.android.gms:play-services-measurement-sdk-api:17.2.0] C:\Users\win10\.gradle\caches\transforms-2\files-2.1\cea4c01d1d066f5da45e00658dc41464\AndroidManifest.xml:20:5-44
MERGED from [com.google.android.gms:play-services-tasks:17.1.0] C:\Users\win10\.gradle\caches\transforms-2\files-2.1\dc918fce677671e4809a4012ddeaa03e\AndroidManifest.xml:5:5-44
MERGED from [com.google.android.gms:play-services-tasks:17.1.0] C:\Users\win10\.gradle\caches\transforms-2\files-2.1\dc918fce677671e4809a4012ddeaa03e\AndroidManifest.xml:5:5-44
MERGED from [com.google.android.gms:play-services-measurement-base:17.2.0] C:\Users\win10\.gradle\caches\transforms-2\files-2.1\843057c70dd439b62bdb0e25ee3611a4\AndroidManifest.xml:5:5-44
MERGED from [com.google.android.gms:play-services-measurement-base:17.2.0] C:\Users\win10\.gradle\caches\transforms-2\files-2.1\843057c70dd439b62bdb0e25ee3611a4\AndroidManifest.xml:5:5-44
MERGED from [com.google.android.gms:play-services-basement:17.3.0] C:\Users\win10\.gradle\caches\transforms-2\files-2.1\857800dd1a2e24c28cdf52d2e06d7a0b\AndroidManifest.xml:20:5-44
MERGED from [com.google.android.gms:play-services-basement:17.3.0] C:\Users\win10\.gradle\caches\transforms-2\files-2.1\857800dd1a2e24c28cdf52d2e06d7a0b\AndroidManifest.xml:20:5-44
MERGED from [androidx.fragment:fragment:1.1.0] C:\Users\win10\.gradle\caches\transforms-2\files-2.1\062378cfe53648b49808f293d3d61953\AndroidManifest.xml:20:5-22:41
MERGED from [androidx.fragment:fragment:1.1.0] C:\Users\win10\.gradle\caches\transforms-2\files-2.1\062378cfe53648b49808f293d3d61953\AndroidManifest.xml:20:5-22:41
MERGED from [androidx.appcompat:appcompat-resources:1.2.0] C:\Users\win10\.gradle\caches\transforms-2\files-2.1\6dca14f3630951847da690f8531dcd61\AndroidManifest.xml:20:5-22:41
MERGED from [androidx.appcompat:appcompat-resources:1.2.0] C:\Users\win10\.gradle\caches\transforms-2\files-2.1\6dca14f3630951847da690f8531dcd61\AndroidManifest.xml:20:5-22:41
MERGED from [androidx.drawerlayout:drawerlayout:1.0.0] C:\Users\win10\.gradle\caches\transforms-2\files-2.1\f77b67a437c19cbade9b88271f7947d2\AndroidManifest.xml:20:5-44
MERGED from [androidx.drawerlayout:drawerlayout:1.0.0] C:\Users\win10\.gradle\caches\transforms-2\files-2.1\f77b67a437c19cbade9b88271f7947d2\AndroidManifest.xml:20:5-44
MERGED from [androidx.media:media:1.0.0] C:\Users\win10\.gradle\caches\transforms-2\files-2.1\964b9acfddd3053cb358e217afba1c6c\AndroidManifest.xml:20:5-44
MERGED from [androidx.media:media:1.0.0] C:\Users\win10\.gradle\caches\transforms-2\files-2.1\964b9acfddd3053cb358e217afba1c6c\AndroidManifest.xml:20:5-44
MERGED from [androidx.legacy:legacy-support-core-utils:1.0.0] C:\Users\win10\.gradle\caches\transforms-2\files-2.1\46a79900219ea86cfd5770f542c3b3f0\AndroidManifest.xml:20:5-44
MERGED from [androidx.legacy:legacy-support-core-utils:1.0.0] C:\Users\win10\.gradle\caches\transforms-2\files-2.1\46a79900219ea86cfd5770f542c3b3f0\AndroidManifest.xml:20:5-44
MERGED from [androidx.coordinatorlayout:coordinatorlayout:1.1.0] C:\Users\win10\.gradle\caches\transforms-2\files-2.1\f9d5fb6075f72cf9e8c4bff4be8ce87e\AndroidManifest.xml:20:5-22:41
MERGED from [androidx.coordinatorlayout:coordinatorlayout:1.1.0] C:\Users\win10\.gradle\caches\transforms-2\files-2.1\f9d5fb6075f72cf9e8c4bff4be8ce87e\AndroidManifest.xml:20:5-22:41
MERGED from [androidx.viewpager:viewpager:1.0.0] C:\Users\win10\.gradle\caches\transforms-2\files-2.1\517c121fec59880edc741669057183a3\AndroidManifest.xml:20:5-44
MERGED from [androidx.viewpager:viewpager:1.0.0] C:\Users\win10\.gradle\caches\transforms-2\files-2.1\517c121fec59880edc741669057183a3\AndroidManifest.xml:20:5-44
MERGED from [androidx.slidingpanelayout:slidingpanelayout:1.0.0] C:\Users\win10\.gradle\caches\transforms-2\files-2.1\80ac4d7ea57724be025d8dce62566462\AndroidManifest.xml:20:5-44
MERGED from [androidx.slidingpanelayout:slidingpanelayout:1.0.0] C:\Users\win10\.gradle\caches\transforms-2\files-2.1\80ac4d7ea57724be025d8dce62566462\AndroidManifest.xml:20:5-44
MERGED from [androidx.customview:customview:1.0.0] C:\Users\win10\.gradle\caches\transforms-2\files-2.1\260f4b1c4d2feb446732f926dab9635f\AndroidManifest.xml:20:5-44
MERGED from [androidx.customview:customview:1.0.0] C:\Users\win10\.gradle\caches\transforms-2\files-2.1\260f4b1c4d2feb446732f926dab9635f\AndroidManifest.xml:20:5-44
MERGED from [androidx.transition:transition:1.2.0] C:\Users\win10\.gradle\caches\transforms-2\files-2.1\167df481599fcaeb3caccd2b2e962ee5\AndroidManifest.xml:20:5-22:41
MERGED from [androidx.transition:transition:1.2.0] C:\Users\win10\.gradle\caches\transforms-2\files-2.1\167df481599fcaeb3caccd2b2e962ee5\AndroidManifest.xml:20:5-22:41
MERGED from [androidx.vectordrawable:vectordrawable-animated:1.1.0] C:\Users\win10\.gradle\caches\transforms-2\files-2.1\d8bc657e6b2b36b264702a93c5b0e4ce\AndroidManifest.xml:20:5-22:41
MERGED from [androidx.vectordrawable:vectordrawable-animated:1.1.0] C:\Users\win10\.gradle\caches\transforms-2\files-2.1\d8bc657e6b2b36b264702a93c5b0e4ce\AndroidManifest.xml:20:5-22:41
MERGED from [androidx.vectordrawable:vectordrawable:1.1.0] C:\Users\win10\.gradle\caches\transforms-2\files-2.1\7d717aa810e1fdc5747f41f5383c3b55\AndroidManifest.xml:20:5-22:41
MERGED from [androidx.vectordrawable:vectordrawable:1.1.0] C:\Users\win10\.gradle\caches\transforms-2\files-2.1\7d717aa810e1fdc5747f41f5383c3b55\AndroidManifest.xml:20:5-22:41
MERGED from [androidx.loader:loader:1.0.0] C:\Users\win10\.gradle\caches\transforms-2\files-2.1\957a2cf8bc0b68887a9fd3a4200f994e\AndroidManifest.xml:20:5-44
MERGED from [androidx.loader:loader:1.0.0] C:\Users\win10\.gradle\caches\transforms-2\files-2.1\957a2cf8bc0b68887a9fd3a4200f994e\AndroidManifest.xml:20:5-44
MERGED from [androidx.activity:activity:1.0.0] C:\Users\win10\.gradle\caches\transforms-2\files-2.1\c36b60fdd83335a7b3ab1be1dec58bd9\AndroidManifest.xml:20:5-22:41
MERGED from [androidx.activity:activity:1.0.0] C:\Users\win10\.gradle\caches\transforms-2\files-2.1\c36b60fdd83335a7b3ab1be1dec58bd9\AndroidManifest.xml:20:5-22:41
MERGED from [androidx.swiperefreshlayout:swiperefreshlayout:1.0.0] C:\Users\win10\.gradle\caches\transforms-2\files-2.1\ad486115d3991d2b6caaae460fd5681a\AndroidManifest.xml:20:5-44
MERGED from [androidx.swiperefreshlayout:swiperefreshlayout:1.0.0] C:\Users\win10\.gradle\caches\transforms-2\files-2.1\ad486115d3991d2b6caaae460fd5681a\AndroidManifest.xml:20:5-44
MERGED from [androidx.asynclayoutinflater:asynclayoutinflater:1.0.0] C:\Users\win10\.gradle\caches\transforms-2\files-2.1\37a4f59af69e7f3c9c7f49bf00e5fecf\AndroidManifest.xml:20:5-44
MERGED from [androidx.asynclayoutinflater:asynclayoutinflater:1.0.0] C:\Users\win10\.gradle\caches\transforms-2\files-2.1\37a4f59af69e7f3c9c7f49bf00e5fecf\AndroidManifest.xml:20:5-44
MERGED from [androidx.core:core:1.3.1] C:\Users\win10\.gradle\caches\transforms-2\files-2.1\bb6ff2578cd930309955ba8f7cd95933\AndroidManifest.xml:20:5-22:41
MERGED from [androidx.core:core:1.3.1] C:\Users\win10\.gradle\caches\transforms-2\files-2.1\bb6ff2578cd930309955ba8f7cd95933\AndroidManifest.xml:20:5-22:41
MERGED from [com.google.firebase:firebase-components:16.0.0] C:\Users\win10\.gradle\caches\transforms-2\files-2.1\a36a8ba96e21b66cd4906538fef768a5\AndroidManifest.xml:19:5-21:41
MERGED from [com.google.firebase:firebase-components:16.0.0] C:\Users\win10\.gradle\caches\transforms-2\files-2.1\a36a8ba96e21b66cd4906538fef768a5\AndroidManifest.xml:19:5-21:41
MERGED from [androidx.localbroadcastmanager:localbroadcastmanager:1.0.0] C:\Users\win10\.gradle\caches\transforms-2\files-2.1\1ce82faed7842496ef9a70096ebecd26\AndroidManifest.xml:20:5-44
MERGED from [androidx.localbroadcastmanager:localbroadcastmanager:1.0.0] C:\Users\win10\.gradle\caches\transforms-2\files-2.1\1ce82faed7842496ef9a70096ebecd26\AndroidManifest.xml:20:5-44
MERGED from [androidx.versionedparcelable:versionedparcelable:1.1.0] C:\Users\win10\.gradle\caches\transforms-2\files-2.1\09e72e19a22645cf520be2550d620c4b\AndroidManifest.xml:20:5-22:41
MERGED from [androidx.versionedparcelable:versionedparcelable:1.1.0] C:\Users\win10\.gradle\caches\transforms-2\files-2.1\09e72e19a22645cf520be2550d620c4b\AndroidManifest.xml:20:5-22:41
MERGED from [androidx.documentfile:documentfile:1.0.0] C:\Users\win10\.gradle\caches\transforms-2\files-2.1\aedc4177c08cea20232427651f3c5813\AndroidManifest.xml:20:5-44
MERGED from [androidx.documentfile:documentfile:1.0.0] C:\Users\win10\.gradle\caches\transforms-2\files-2.1\aedc4177c08cea20232427651f3c5813\AndroidManifest.xml:20:5-44
MERGED from [androidx.print:print:1.0.0] C:\Users\win10\.gradle\caches\transforms-2\files-2.1\210a7be50b8fd75dbe913634e9c96e15\AndroidManifest.xml:20:5-44
MERGED from [androidx.print:print:1.0.0] C:\Users\win10\.gradle\caches\transforms-2\files-2.1\210a7be50b8fd75dbe913634e9c96e15\AndroidManifest.xml:20:5-44
MERGED from [androidx.interpolator:interpolator:1.0.0] C:\Users\win10\.gradle\caches\transforms-2\files-2.1\1e310658c3db2763cc8dd40b1c28c586\AndroidManifest.xml:20:5-44
MERGED from [androidx.interpolator:interpolator:1.0.0] C:\Users\win10\.gradle\caches\transforms-2\files-2.1\1e310658c3db2763cc8dd40b1c28c586\AndroidManifest.xml:20:5-44
MERGED from [androidx.lifecycle:lifecycle-runtime:2.1.0] C:\Users\win10\.gradle\caches\transforms-2\files-2.1\cae0754183aca6804772300d3f544774\AndroidManifest.xml:20:5-44
MERGED from [androidx.lifecycle:lifecycle-runtime:2.1.0] C:\Users\win10\.gradle\caches\transforms-2\files-2.1\cae0754183aca6804772300d3f544774\AndroidManifest.xml:20:5-44
MERGED from [androidx.lifecycle:lifecycle-viewmodel:2.1.0] C:\Users\win10\.gradle\caches\transforms-2\files-2.1\953a3c6fda2cfa1c30fcef999d097670\AndroidManifest.xml:20:5-44
MERGED from [androidx.lifecycle:lifecycle-viewmodel:2.1.0] C:\Users\win10\.gradle\caches\transforms-2\files-2.1\953a3c6fda2cfa1c30fcef999d097670\AndroidManifest.xml:20:5-44
MERGED from [androidx.savedstate:savedstate:1.0.0] C:\Users\win10\.gradle\caches\transforms-2\files-2.1\39f37f521fa5c745348fdb4fdb8c0b1c\AndroidManifest.xml:20:5-22:41
MERGED from [androidx.savedstate:savedstate:1.0.0] C:\Users\win10\.gradle\caches\transforms-2\files-2.1\39f37f521fa5c745348fdb4fdb8c0b1c\AndroidManifest.xml:20:5-22:41
MERGED from [androidx.lifecycle:lifecycle-livedata:2.0.0] C:\Users\win10\.gradle\caches\transforms-2\files-2.1\95599ade9b92dfd079accdfcfc847537\AndroidManifest.xml:20:5-44
MERGED from [androidx.lifecycle:lifecycle-livedata:2.0.0] C:\Users\win10\.gradle\caches\transforms-2\files-2.1\95599ade9b92dfd079accdfcfc847537\AndroidManifest.xml:20:5-44
MERGED from [androidx.lifecycle:lifecycle-livedata-core:2.0.0] C:\Users\win10\.gradle\caches\transforms-2\files-2.1\30c0e52156cdb13a8084fdcfc5b72476\AndroidManifest.xml:20:5-44
MERGED from [androidx.lifecycle:lifecycle-livedata-core:2.0.0] C:\Users\win10\.gradle\caches\transforms-2\files-2.1\30c0e52156cdb13a8084fdcfc5b72476\AndroidManifest.xml:20:5-44
MERGED from [androidx.arch.core:core-runtime:2.0.0] C:\Users\win10\.gradle\caches\transforms-2\files-2.1\24b67a43adfb1b2d5ffaa99ac063df94\AndroidManifest.xml:20:5-44
MERGED from [androidx.arch.core:core-runtime:2.0.0] C:\Users\win10\.gradle\caches\transforms-2\files-2.1\24b67a43adfb1b2d5ffaa99ac063df94\AndroidManifest.xml:20:5-44
MERGED from [androidx.annotation:annotation-experimental:1.0.0] C:\Users\win10\.gradle\caches\transforms-2\files-2.1\946683e56073bdbd4d3272aca080b2c0\AndroidManifest.xml:20:5-22:41
MERGED from [androidx.annotation:annotation-experimental:1.0.0] C:\Users\win10\.gradle\caches\transforms-2\files-2.1\946683e56073bdbd4d3272aca080b2c0\AndroidManifest.xml:20:5-22:41
MERGED from [com.google.android.gms:play-services-ads-base:19.4.0] C:\Users\win10\.gradle\caches\transforms-2\files-2.1\83d928c6965cb48c19961ba465f64963\AndroidManifest.xml:5:5-44
MERGED from [com.google.android.gms:play-services-ads-base:19.4.0] C:\Users\win10\.gradle\caches\transforms-2\files-2.1\83d928c6965cb48c19961ba465f64963\AndroidManifest.xml:5:5-44
INJECTED from E:\Technical\Project\Bhaktamber\Bhaktamber\app\src\main\AndroidManifest.xml
INJECTED from E:\Technical\Project\Bhaktamber\Bhaktamber\app\src\main\AndroidManifest.xml
	tools:overrideLibrary
		ADDED from [com.google.android.gms:play-services-ads:19.4.0] C:\Users\win10\.gradle\caches\transforms-2\files-2.1\23b6940fe6733cdffd0f5cdb868e4eb5\AndroidManifest.xml:23:9-49
	android:targetSdkVersion
		INJECTED from E:\Technical\Project\Bhaktamber\Bhaktamber\app\src\main\AndroidManifest.xml
		ADDED from E:\Technical\Project\Bhaktamber\Bhaktamber\app\src\main\AndroidManifest.xml
		INJECTED from E:\Technical\Project\Bhaktamber\Bhaktamber\app\src\main\AndroidManifest.xml
	android:minSdkVersion
		INJECTED from E:\Technical\Project\Bhaktamber\Bhaktamber\app\src\main\AndroidManifest.xml
		ADDED from E:\Technical\Project\Bhaktamber\Bhaktamber\app\src\main\AndroidManifest.xml
		INJECTED from E:\Technical\Project\Bhaktamber\Bhaktamber\app\src\main\AndroidManifest.xml
service#com.google.firebase.components.ComponentDiscoveryService
ADDED from [com.google.firebase:firebase-database:19.4.0] C:\Users\win10\.gradle\caches\transforms-2\files-2.1\47e1adf828947e221cebedec71c0337c\AndroidManifest.xml:29:9-35:19
MERGED from [com.google.firebase:firebase-auth:19.4.0] C:\Users\win10\.gradle\caches\transforms-2\files-2.1\90ec407056398297a88d7bb96bf4893b\AndroidManifest.xml:33:9-39:19
MERGED from [com.google.firebase:firebase-auth:19.4.0] C:\Users\win10\.gradle\caches\transforms-2\files-2.1\90ec407056398297a88d7bb96bf4893b\AndroidManifest.xml:33:9-39:19
MERGED from [com.google.firebase:firebase-common:19.3.1] C:\Users\win10\.gradle\caches\transforms-2\files-2.1\8c189b2d24b9785e214bf42bfa0b50b7\AndroidManifest.xml:33:9-37:35
MERGED from [com.google.firebase:firebase-common:19.3.1] C:\Users\win10\.gradle\caches\transforms-2\files-2.1\8c189b2d24b9785e214bf42bfa0b50b7\AndroidManifest.xml:33:9-37:35
	android:exported
		ADDED from [com.google.firebase:firebase-database:19.4.0] C:\Users\win10\.gradle\caches\transforms-2\files-2.1\47e1adf828947e221cebedec71c0337c\AndroidManifest.xml:31:13-37
	tools:targetApi
		ADDED from [com.google.firebase:firebase-common:19.3.1] C:\Users\win10\.gradle\caches\transforms-2\files-2.1\8c189b2d24b9785e214bf42bfa0b50b7\AndroidManifest.xml:37:13-32
	android:directBootAware
		ADDED from [com.google.firebase:firebase-common:19.3.1] C:\Users\win10\.gradle\caches\transforms-2\files-2.1\8c189b2d24b9785e214bf42bfa0b50b7\AndroidManifest.xml:35:13-43
	android:name
		ADDED from [com.google.firebase:firebase-database:19.4.0] C:\Users\win10\.gradle\caches\transforms-2\files-2.1\47e1adf828947e221cebedec71c0337c\AndroidManifest.xml:30:13-84
meta-data#com.google.firebase.components:com.google.firebase.database.DatabaseRegistrar
ADDED from [com.google.firebase:firebase-database:19.4.0] C:\Users\win10\.gradle\caches\transforms-2\files-2.1\47e1adf828947e221cebedec71c0337c\AndroidManifest.xml:32:13-34:85
	android:value
		ADDED from [com.google.firebase:firebase-database:19.4.0] C:\Users\win10\.gradle\caches\transforms-2\files-2.1\47e1adf828947e221cebedec71c0337c\AndroidManifest.xml:34:17-82
	android:name
		ADDED from [com.google.firebase:firebase-database:19.4.0] C:\Users\win10\.gradle\caches\transforms-2\files-2.1\47e1adf828947e221cebedec71c0337c\AndroidManifest.xml:33:17-109
activity#com.google.firebase.auth.internal.FederatedSignInActivity
ADDED from [com.google.firebase:firebase-auth:19.4.0] C:\Users\win10\.gradle\caches\transforms-2\files-2.1\90ec407056398297a88d7bb96bf4893b\AndroidManifest.xml:24:9-31:50
	android:excludeFromRecents
		ADDED from [com.google.firebase:firebase-auth:19.4.0] C:\Users\win10\.gradle\caches\transforms-2\files-2.1\90ec407056398297a88d7bb96bf4893b\AndroidManifest.xml:26:13-46
	android:launchMode
		ADDED from [com.google.firebase:firebase-auth:19.4.0] C:\Users\win10\.gradle\caches\transforms-2\files-2.1\90ec407056398297a88d7bb96bf4893b\AndroidManifest.xml:28:13-44
	android:exported
		ADDED from [com.google.firebase:firebase-auth:19.4.0] C:\Users\win10\.gradle\caches\transforms-2\files-2.1\90ec407056398297a88d7bb96bf4893b\AndroidManifest.xml:27:13-36
	android:permission
		ADDED from [com.google.firebase:firebase-auth:19.4.0] C:\Users\win10\.gradle\caches\transforms-2\files-2.1\90ec407056398297a88d7bb96bf4893b\AndroidManifest.xml:29:13-102
	android:theme
		ADDED from [com.google.firebase:firebase-auth:19.4.0] C:\Users\win10\.gradle\caches\transforms-2\files-2.1\90ec407056398297a88d7bb96bf4893b\AndroidManifest.xml:30:13-72
	tools:replace
		ADDED from [com.google.firebase:firebase-auth:19.4.0] C:\Users\win10\.gradle\caches\transforms-2\files-2.1\90ec407056398297a88d7bb96bf4893b\AndroidManifest.xml:31:13-47
	android:name
		ADDED from [com.google.firebase:firebase-auth:19.4.0] C:\Users\win10\.gradle\caches\transforms-2\files-2.1\90ec407056398297a88d7bb96bf4893b\AndroidManifest.xml:25:13-85
meta-data#com.google.firebase.components:com.google.firebase.auth.FirebaseAuthRegistrar
ADDED from [com.google.firebase:firebase-auth:19.4.0] C:\Users\win10\.gradle\caches\transforms-2\files-2.1\90ec407056398297a88d7bb96bf4893b\AndroidManifest.xml:36:13-38:85
	android:value
		ADDED from [com.google.firebase:firebase-auth:19.4.0] C:\Users\win10\.gradle\caches\transforms-2\files-2.1\90ec407056398297a88d7bb96bf4893b\AndroidManifest.xml:38:17-82
	android:name
		ADDED from [com.google.firebase:firebase-auth:19.4.0] C:\Users\win10\.gradle\caches\transforms-2\files-2.1\90ec407056398297a88d7bb96bf4893b\AndroidManifest.xml:37:17-109
activity#com.google.android.gms.common.api.GoogleApiActivity
ADDED from [com.google.android.gms:play-services-base:17.1.0] C:\Users\win10\.gradle\caches\transforms-2\files-2.1\6b0ce285a6b9119f999994a5d4cd15c2\AndroidManifest.xml:23:9-26:75
	android:exported
		ADDED from [com.google.android.gms:play-services-base:17.1.0] C:\Users\win10\.gradle\caches\transforms-2\files-2.1\6b0ce285a6b9119f999994a5d4cd15c2\AndroidManifest.xml:25:13-37
	android:theme
		ADDED from [com.google.android.gms:play-services-base:17.1.0] C:\Users\win10\.gradle\caches\transforms-2\files-2.1\6b0ce285a6b9119f999994a5d4cd15c2\AndroidManifest.xml:26:13-72
	android:name
		ADDED from [com.google.android.gms:play-services-base:17.1.0] C:\Users\win10\.gradle\caches\transforms-2\files-2.1\6b0ce285a6b9119f999994a5d4cd15c2\AndroidManifest.xml:24:13-79
provider#com.google.firebase.provider.FirebaseInitProvider
ADDED from [com.google.firebase:firebase-common:19.3.1] C:\Users\win10\.gradle\caches\transforms-2\files-2.1\8c189b2d24b9785e214bf42bfa0b50b7\AndroidManifest.xml:26:9-31:39
	android:authorities
		ADDED from [com.google.firebase:firebase-common:19.3.1] C:\Users\win10\.gradle\caches\transforms-2\files-2.1\8c189b2d24b9785e214bf42bfa0b50b7\AndroidManifest.xml:28:13-72
	android:exported
		ADDED from [com.google.firebase:firebase-common:19.3.1] C:\Users\win10\.gradle\caches\transforms-2\files-2.1\8c189b2d24b9785e214bf42bfa0b50b7\AndroidManifest.xml:30:13-37
	android:directBootAware
		ADDED from [com.google.firebase:firebase-common:19.3.1] C:\Users\win10\.gradle\caches\transforms-2\files-2.1\8c189b2d24b9785e214bf42bfa0b50b7\AndroidManifest.xml:29:13-43
	android:initOrder
		ADDED from [com.google.firebase:firebase-common:19.3.1] C:\Users\win10\.gradle\caches\transforms-2\files-2.1\8c189b2d24b9785e214bf42bfa0b50b7\AndroidManifest.xml:31:13-36
	android:name
		ADDED from [com.google.firebase:firebase-common:19.3.1] C:\Users\win10\.gradle\caches\transforms-2\files-2.1\8c189b2d24b9785e214bf42bfa0b50b7\AndroidManifest.xml:27:13-77
activity#com.google.android.gms.ads.AdActivity
ADDED from [com.google.android.gms:play-services-ads-lite:19.4.0] C:\Users\win10\.gradle\caches\transforms-2\files-2.1\26b92f1b2167fc503d8cd668343eead4\AndroidManifest.xml:29:9-33:64
	android:exported
		ADDED from [com.google.android.gms:play-services-ads-lite:19.4.0] C:\Users\win10\.gradle\caches\transforms-2\files-2.1\26b92f1b2167fc503d8cd668343eead4\AndroidManifest.xml:32:13-37
	android:configChanges
		ADDED from [com.google.android.gms:play-services-ads-lite:19.4.0] C:\Users\win10\.gradle\caches\transforms-2\files-2.1\26b92f1b2167fc503d8cd668343eead4\AndroidManifest.xml:31:13-122
	android:theme
		ADDED from [com.google.android.gms:play-services-ads-lite:19.4.0] C:\Users\win10\.gradle\caches\transforms-2\files-2.1\26b92f1b2167fc503d8cd668343eead4\AndroidManifest.xml:33:13-61
	android:name
		ADDED from [com.google.android.gms:play-services-ads-lite:19.4.0] C:\Users\win10\.gradle\caches\transforms-2\files-2.1\26b92f1b2167fc503d8cd668343eead4\AndroidManifest.xml:30:13-65
provider#com.google.android.gms.ads.MobileAdsInitProvider
ADDED from [com.google.android.gms:play-services-ads-lite:19.4.0] C:\Users\win10\.gradle\caches\transforms-2\files-2.1\26b92f1b2167fc503d8cd668343eead4\AndroidManifest.xml:35:9-39:39
	android:authorities
		ADDED from [com.google.android.gms:play-services-ads-lite:19.4.0] C:\Users\win10\.gradle\caches\transforms-2\files-2.1\26b92f1b2167fc503d8cd668343eead4\AndroidManifest.xml:37:13-73
	android:exported
		ADDED from [com.google.android.gms:play-services-ads-lite:19.4.0] C:\Users\win10\.gradle\caches\transforms-2\files-2.1\26b92f1b2167fc503d8cd668343eead4\AndroidManifest.xml:38:13-37
	android:initOrder
		ADDED from [com.google.android.gms:play-services-ads-lite:19.4.0] C:\Users\win10\.gradle\caches\transforms-2\files-2.1\26b92f1b2167fc503d8cd668343eead4\AndroidManifest.xml:39:13-36
	android:name
		ADDED from [com.google.android.gms:play-services-ads-lite:19.4.0] C:\Users\win10\.gradle\caches\transforms-2\files-2.1\26b92f1b2167fc503d8cd668343eead4\AndroidManifest.xml:36:13-76
service#com.google.android.gms.ads.AdService
ADDED from [com.google.android.gms:play-services-ads-lite:19.4.0] C:\Users\win10\.gradle\caches\transforms-2\files-2.1\26b92f1b2167fc503d8cd668343eead4\AndroidManifest.xml:41:9-44:40
	android:enabled
		ADDED from [com.google.android.gms:play-services-ads-lite:19.4.0] C:\Users\win10\.gradle\caches\transforms-2\files-2.1\26b92f1b2167fc503d8cd668343eead4\AndroidManifest.xml:43:13-35
	android:exported
		ADDED from [com.google.android.gms:play-services-ads-lite:19.4.0] C:\Users\win10\.gradle\caches\transforms-2\files-2.1\26b92f1b2167fc503d8cd668343eead4\AndroidManifest.xml:44:13-37
	android:name
		ADDED from [com.google.android.gms:play-services-ads-lite:19.4.0] C:\Users\win10\.gradle\caches\transforms-2\files-2.1\26b92f1b2167fc503d8cd668343eead4\AndroidManifest.xml:42:13-64
